{
  "files": {
    "main.css": "/static/css/main.555382ef.chunk.css",
    "main.js": "/static/js/main.a0667726.chunk.js",
    "main.js.map": "/static/js/main.a0667726.chunk.js.map",
    "runtime-main.js": "/static/js/runtime-main.9e04f48f.js",
    "runtime-main.js.map": "/static/js/runtime-main.9e04f48f.js.map",
    "static/css/2.0624914a.chunk.css": "/static/css/2.0624914a.chunk.css",
    "static/js/2.c8650381.chunk.js": "/static/js/2.c8650381.chunk.js",
    "static/js/2.c8650381.chunk.js.map": "/static/js/2.c8650381.chunk.js.map",
    "index.html": "/index.html",
    "precache-manifest.c9539d9fd4c06c7970978084d0cc1225.js": "/precache-manifest.c9539d9fd4c06c7970978084d0cc1225.js",
    "service-worker.js": "/service-worker.js",
    "static/css/2.0624914a.chunk.css.map": "/static/css/2.0624914a.chunk.css.map",
    "static/css/main.555382ef.chunk.css.map": "/static/css/main.555382ef.chunk.css.map"
  },
  "entrypoints": [
    "static/js/runtime-main.9e04f48f.js",
    "static/css/2.0624914a.chunk.css",
    "static/js/2.c8650381.chunk.js",
    "static/css/main.555382ef.chunk.css",
    "static/js/main.a0667726.chunk.js"
  ]
}